[{"id":"8248151d-1032-46fc-93fa-52aeee7a6238","IBAN":"CZ02 1268 0714 9252 0546 7878","amount":"€51,05","date":"4/1/2018","concept":"Eaton Vance Short Diversified Income Fund"},
{"id":"0f9c57b4-1de0-4749-b19a-7a6a37e21aa6","IBAN":"CZ46 6479 4663 4893 1068 3812","amount":"€43,28","date":"12/12/2017","concept":"Nordstrom, Inc."},
{"id":"901a2d99-4d15-4c20-a5d3-5dea50f8f98e","IBAN":"BA95 9377 6694 1802 7962","amount":"€25,20","date":"10/9/2017","concept":"PowerShares DWA NASDAQ Momentum Portfolio"},
{"id":"870e590a-59a3-4d5c-b048-22c0958ae785","IBAN":"SK45 3226 0680 6840 2922 9562","amount":"€98,92","date":"6/24/2017","concept":"Harvest Capital Credit Corporation"},
{"id":"463ad6a3-b931-4f28-91fe-570e3777ca8d","IBAN":"CY68 1925 2894 TJS2 6CH8 O6YO 9HVT","amount":"€22,92","date":"11/7/2017","concept":"Nuveen Preferred Income Opportunites Fund"},
{"id":"baa5cf25-aef5-4a87-8c9e-669e7fa72a75","IBAN":"RS61 0289 4589 0442 7244 05","amount":"€19,55","date":"4/11/2018","concept":"Old Point Financial Corporation"},
{"id":"19fbeeb3-078f-4199-a4f5-9eb1d1d2d91e","IBAN":"FI31 0113 9969 6570 20","amount":"€48,27","date":"5/28/2017","concept":"Goldman Sachs BDC, Inc."},
{"id":"62a416d1-dd58-4487-8fb4-35ed5bd57f3a","IBAN":"TN80 3455 3883 6137 9000 4699","amount":"€62,06","date":"5/8/2017","concept":"Titan International, Inc."},
{"id":"961ce530-7d51-4740-8bf2-8107108c56df","IBAN":"AD54 0773 4199 HOCI HW16 UVTN","amount":"€17,60","date":"9/27/2017","concept":"Bank Mutual Corporation"},
{"id":"674fe8fe-da05-4f02-a894-977100481513","IBAN":"AL40 4069 2794 RKT5 T4NF ZVKU S73R","amount":"€54,99","date":"4/22/2018","concept":"Colonial High Income Municipal Trust"},
{"id":"dd9f96f2-fa8f-4c61-bc3e-bd97f252ef1c","IBAN":"FR25 4891 1643 87JX TWTE XPRD Y98","amount":"€3,86","date":"11/13/2017","concept":"Cadence Design Systems, Inc."},
{"id":"197f7f37-6801-4f1b-802a-192bed5aae14","IBAN":"PL19 7168 5161 0020 1016 5093 6663","amount":"€55,78","date":"11/22/2017","concept":"Flex Ltd."},
{"id":"006e8e92-34b1-4fed-9cba-b07c7476fdb4","IBAN":"FR45 5684 7758 33LN MEXT ZM6W K52","amount":"€78,76","date":"3/28/2018","concept":"Blackrock MuniAssets Fund, Inc."},
{"id":"7ec674e0-821a-4f92-8da4-f89e18849586","IBAN":"SA56 139Z V3AW WJJC 8GII DISL","amount":"€7,34","date":"1/24/2018","concept":"National General Holdings Corp"},
{"id":"e9e13163-c51b-4527-a7d1-d57e3d95994f","IBAN":"DO53 VOSO 6528 2403 9322 1865 7173","amount":"€7,50","date":"11/17/2017","concept":"Xenith Bankshares, Inc."},
{"id":"74c430ca-9f8b-4d64-b10e-4c8512c04aa3","IBAN":"DK20 0551 2670 0507 40","amount":"€9,90","date":"8/1/2017","concept":"Argo Group International Holdings, Ltd."},
{"id":"19c9297d-a169-4225-b0b3-e38d22992971","IBAN":"GL84 0709 6925 7170 68","amount":"€67,53","date":"3/29/2018","concept":"Tonix Pharmaceuticals Holding Corp."},
{"id":"879bb35e-1005-4883-be5f-f221ab277de2","IBAN":"GI94 CYFO PS2U ZUKF Z7T7 MDW","amount":"€76,08","date":"8/2/2017","concept":"Equity Commonwealth"},
{"id":"579c8b08-fdb7-465c-8234-3cdd794b4178","IBAN":"CZ27 3964 0857 7372 3072 1569","amount":"€15,69","date":"10/12/2017","concept":"WisdomTree Emerging Markets Corporate Bond Fund"},
{"id":"b4791167-0afd-4c04-9280-5da48496e47c","IBAN":"AT10 5886 4550 6825 0847","amount":"€62,71","date":"5/6/2017","concept":"ENGlobal Corporation"},
{"id":"a98dea2d-e879-4600-a785-03d2bc14c9b3","IBAN":"BR33 0363 9855 3298 3763 4474 762G Z","amount":"€25,39","date":"2/7/2018","concept":"The Organics ETF"},
{"id":"347aa5fc-bcf2-4043-9791-d72e86a3625c","IBAN":"FR09 7487 5029 18MU XL7L UDVI A66","amount":"€9,57","date":"11/15/2017","concept":"Ringcentral, Inc."},
{"id":"34af9b13-f22d-4308-b03d-1267b258275c","IBAN":"FR04 4506 9844 4604 ZKXH JU2S A12","amount":"€51,77","date":"5/2/2017","concept":"Scudder Global High Income Fund, Inc."},
{"id":"d9798176-c633-46be-ba9f-4f39d6eb42df","IBAN":"FR25 1365 5852 29QU VOQY ZDHJ O11","amount":"€33,77","date":"3/3/2018","concept":"Capstead Mortgage Corporation"},
{"id":"3e71c01b-3113-4bef-86ce-f6045fae9db1","IBAN":"HR02 4367 6550 0342 8486 4","amount":"€88,16","date":"6/1/2017","concept":"RXi Pharmaceuticals Corporation"},
{"id":"a92d91ec-df09-41f7-bf69-67dd45994938","IBAN":"MC60 7654 7953 900O TNSP LGJB 296","amount":"€92,80","date":"7/2/2017","concept":"DNB Financial Corp"},
{"id":"114dddf6-9be2-4ee4-bd1d-e5b85d5a601c","IBAN":"SI62 3789 0041 7655 382","amount":"€96,23","date":"6/23/2017","concept":"MoSys, Inc."},
{"id":"8fde6573-622c-4320-a333-a67ee5897df7","IBAN":"MD04 VTHD AXGI OWIK 0GGY FMOU","amount":"€24,35","date":"7/16/2017","concept":"Hollysys Automation Technologies, Ltd."},
{"id":"ebaf0426-5157-416a-8992-25eaa560452c","IBAN":"GT75 JUCX WGE7 5WVH RO8X NMO5 MLNM","amount":"€20,57","date":"10/1/2017","concept":"PB Bancorp, Inc."},
{"id":"75a63252-3b11-4004-8102-83d602e3415a","IBAN":"FR43 7011 0753 48GC JML9 AFM4 S23","amount":"€54,55","date":"1/28/2018","concept":"Southwestern Energy Company"},
{"id":"52b058f4-45d1-4b7a-a20f-fe107a63f4df","IBAN":"FR54 0787 0910 12NP N9YP ZWQA 932","amount":"€68,13","date":"11/9/2017","concept":"Sajan, Inc."},
{"id":"e230f0a5-7306-4ab9-96ac-0fe780d66a81","IBAN":"LI88 7627 5LC2 ZDXS K4NM T","amount":"€11,67","date":"7/9/2017","concept":"Southern California Edison Company"},
{"id":"dd382a43-34e7-48f4-b299-e6c3cf584e62","IBAN":"GI50 RZRH HBGZ XS5T DJ3A T9M","amount":"€75,37","date":"2/16/2018","concept":"Apache Corporation"},
{"id":"63e63687-0eef-4175-a223-d67c2d931def","IBAN":"FR83 5963 0757 483V CUFL XMFE M35","amount":"€38,80","date":"1/26/2018","concept":"American International Group, Inc."},
{"id":"2408857d-b9fa-4978-9fea-63fe7f6bc50e","IBAN":"FO33 0485 0939 7431 44","amount":"€29,25","date":"12/11/2017","concept":"Chesapeake Energy Corporation"},
{"id":"66c6b11e-7192-4a5a-96cb-b2cd332459c1","IBAN":"NO54 0227 6027 923","amount":"€59,48","date":"7/11/2017","concept":"Kitov Pharmaceuticals Holdings Ltd."},
{"id":"19fdfd5f-bb58-4e00-a7f2-7b7756adc40c","IBAN":"BE60 5652 1309 9867","amount":"€21,61","date":"4/27/2018","concept":"First Trust Strategic High Income Fund II"},
{"id":"cd17d76d-6be6-45b6-8427-e8989b1880cb","IBAN":"EE25 8552 1071 6947 2349","amount":"€17,03","date":"3/18/2018","concept":"SAP SE"},
{"id":"26e3d22d-cfd5-449d-8b25-e4fae6219eea","IBAN":"GT97 ABSL PJVO 1EYS WVDA M2GH GN3Y","amount":"€64,34","date":"11/9/2017","concept":"Axon Enterprise, Inc."},
{"id":"92ac445d-a22c-457f-877c-5fe13cc6c1c7","IBAN":"EE26 1527 4149 1637 0442","amount":"€27,37","date":"4/30/2018","concept":"Zions Bancorporation"},
{"id":"6985747e-fdcc-4d24-959a-094662826503","IBAN":"CZ22 1217 3867 2061 2869 3120","amount":"€63,96","date":"10/12/2017","concept":"Hunter Maritime Acquisition Corp."},
{"id":"3060f119-e7dd-4b80-8fbe-2f67faa51443","IBAN":"SA93 451K OEPX OBJQ DU2D W1QT","amount":"€84,06","date":"9/16/2017","concept":"Conyers Park Acquisition Corp."},
{"id":"2b567c07-8f64-41f4-9465-e6fd1824524b","IBAN":"FO03 7793 8481 0457 70","amount":"€56,34","date":"1/2/2018","concept":"Virtusa Corporation"},
{"id":"dd9ba367-32ff-4189-8c09-39888f5bf0e9","IBAN":"SE35 1907 5204 4368 3136 0609","amount":"€45,11","date":"4/17/2018","concept":"Invesco High Income Trust II"},
{"id":"0786ab97-1338-4a6b-a7e2-b973d1f48b4d","IBAN":"MK81 795G NNLB I261 U26","amount":"€76,97","date":"6/12/2017","concept":"Apple Inc."},
{"id":"4cd1803c-eac6-4f17-9a46-9c8f2510bff2","IBAN":"FR69 5992 0810 46SZ PNZX ICKS D13","amount":"€56,35","date":"11/29/2017","concept":"Cadiz, Inc."},
{"id":"66ca49ee-a392-4c3e-b644-fea959074798","IBAN":"NL24 FTPI 3323 7532 30","amount":"€86,85","date":"6/29/2017","concept":"CIRCOR International, Inc."},
{"id":"1386ebbf-38d4-469c-b9bc-c6ce08ec7f52","IBAN":"CZ79 5184 0495 1024 3640 4708","amount":"€50,31","date":"12/8/2017","concept":"ClearSign Combustion Corporation"},
{"id":"2b6a00d3-d09a-4ecc-abe1-6b348262b5cb","IBAN":"FR78 2976 8169 93TC XJEG UHHF 044","amount":"€33,65","date":"6/7/2017","concept":"WEC Energy Group, Inc."},
{"id":"76189569-a57f-40de-a4ea-030aae49ba58","IBAN":"EE03 9621 7956 8687 0339","amount":"€56,63","date":"12/24/2017","concept":"United Bankshares, Inc."},
{"id":"68d9869d-4ddc-4db2-9cb8-097fce2121c0","IBAN":"EE88 0506 4009 8749 5080","amount":"€71,60","date":"6/6/2017","concept":"W.W. Grainger, Inc."},
{"id":"9b1c901a-11d6-49ad-ba19-3e9b83fb5185","IBAN":"NL81 PPCV 8543 0415 76","amount":"€2,82","date":"11/29/2017","concept":"Sanchez Energy Corporation"},
{"id":"8d376e5f-2637-47ac-9623-c13e8b736bf5","IBAN":"GT09 PSGE WCFS JROF ZNJP EZ5Y YP1K","amount":"€68,40","date":"6/18/2017","concept":"Quest Resource Holding Corporation."},
{"id":"42443569-31ef-4882-9ec8-bbc0fdf228ba","IBAN":"ES29 3441 8273 1935 4374 1294","amount":"€41,62","date":"1/29/2018","concept":"Mid-America Apartment Communities, Inc."},
{"id":"8e8fc400-622d-45e2-a628-f1c9ed8dc984","IBAN":"LU41 138N KGVE JNAL FGHV","amount":"€74,53","date":"8/24/2017","concept":"eHealth, Inc."},
{"id":"ebfb2d64-64e4-45c7-b989-f2c8c9e5570f","IBAN":"PT78 2045 0904 9964 7292 3769 2","amount":"€2,95","date":"3/19/2018","concept":"First Bancorp"},
{"id":"4bf6271a-cbb6-4431-9123-0832fc3a1f65","IBAN":"DK30 2242 0381 0442 48","amount":"€32,31","date":"9/11/2017","concept":"EPAM Systems, Inc."},
{"id":"d43cca4e-313c-475d-a9b7-01e6d125c6f3","IBAN":"GE98 BE00 0978 1686 8012 30","amount":"€90,35","date":"10/11/2017","concept":"BP Prudhoe Bay Royalty Trust"},
{"id":"fe314d10-d78d-4fb3-b77b-853dbb77bf11","IBAN":"PS62 LKUR EJRJ LA9G Y0SF GJLE K6F7 U","amount":"€6,50","date":"2/6/2018","concept":"Avid Technology, Inc."},
{"id":"6f95964c-15b4-4740-8674-019352b3926c","IBAN":"AE68 7040 2271 9583 5175 794","amount":"€87,00","date":"3/25/2018","concept":"GTY Technology Holdings, Inc."},
{"id":"20e6626f-a345-45d1-be97-b7e3ae55627f","IBAN":"RS40 2468 6625 4725 2877 73","amount":"€97,52","date":"3/22/2018","concept":"Vornado Realty Trust"},
{"id":"0956cceb-2e4b-4db0-b0cb-df56a391f9b1","IBAN":"ES69 9479 2560 3313 9370 0599","amount":"€55,77","date":"1/9/2018","concept":"Zions Bancorporation"},
{"id":"1c0da7ed-42db-4c7e-ba05-bfceb7789f14","IBAN":"AL36 6768 2111 ZUI6 SCQZ ZNYV WBK4","amount":"€50,89","date":"7/22/2017","concept":"Telephone and Data Systems, Inc."},
{"id":"2dfb73eb-2dd3-445c-b983-6aee21905c2d","IBAN":"LU04 714Y HEJU CFOC SRKV","amount":"€25,51","date":"2/15/2018","concept":"Gabelli Equity Trust, Inc. (The)"},
{"id":"90ac7f98-1010-4559-a7b2-3ded41914a56","IBAN":"EE06 2927 6591 9621 4233","amount":"€75,43","date":"1/3/2018","concept":"Tiptree Inc."},
{"id":"b65cf829-db8c-439f-92cd-d42f5b632033","IBAN":"FR34 1399 9021 84G2 KY8K ANUG 778","amount":"€32,51","date":"2/19/2018","concept":"Westar Energy, Inc."},
{"id":"4ed5063e-82a9-40ae-a323-c72d03285b6d","IBAN":"FO74 2954 4894 6795 40","amount":"€17,97","date":"9/24/2017","concept":"Univest Corporation of Pennsylvania"},
{"id":"8eb4075b-d25c-4dcd-be7f-6b7080704d81","IBAN":"GE15 YC72 2474 5658 6599 90","amount":"€54,09","date":"12/10/2017","concept":"Westell Technologies, Inc."},
{"id":"59fe1ace-5912-4bf6-b9c7-d23964579407","IBAN":"LU83 742K ZS9H NNTS MGKN","amount":"€48,09","date":"1/1/2018","concept":"Gerdau S.A."},
{"id":"03915832-6300-46ff-9fb8-3eba54707862","IBAN":"LU78 208K RBPN QLGY HZP3","amount":"€43,46","date":"3/14/2018","concept":"Hudson Technologies, Inc."},
{"id":"3169ac09-e3af-458e-b27a-7f783803339b","IBAN":"RS88 6331 3063 5510 4275 73","amount":"€27,00","date":"3/6/2018","concept":"Titan Machinery Inc."},
{"id":"891ac034-306d-4887-a361-4fcae3ca0f36","IBAN":"FR34 1399 9021 84G2 KY8K ANUG 778","amount":"€44,87","date":"9/6/2017","concept":"Wellesley Bancorp, Inc."},
{"id":"2f25cf57-df98-49db-92e6-f2dcda4c4e79","IBAN":"RS37 7477 0764 0796 5941 02","amount":"€77,77","date":"6/11/2017","concept":"Cantel Medical Corp."},
{"id":"2cb9d516-9ea0-4772-b091-bb9dd7447ff7","IBAN":"MD77 QHMT MTKQ FYQR RLNU ZEUD","amount":"€34,23","date":"11/18/2017","concept":"Packaging Corporation of America"},
{"id":"6c5b107c-aa23-4521-bfb4-201a09a12ea1","IBAN":"GE97 GN69 2788 2116 0409 56","amount":"€90,70","date":"12/22/2017","concept":"Sunesis Pharmaceuticals, Inc."},
{"id":"2283bd99-3930-4e2a-aa77-f40cf5bf4dd4","IBAN":"BR60 0461 6416 7194 1387 6877 276J 6","amount":"€71,53","date":"7/27/2017","concept":"Quintiles IMS Holdings, Inc."},
{"id":"f057a199-ab2a-42fc-bb13-8b4b44ed28bd","IBAN":"ES04 9171 4326 1129 6954 0942","amount":"€68,37","date":"8/2/2017","concept":"BP p.l.c."},
{"id":"a26d29eb-e55c-4dbc-b5a4-3ffc133a8c84","IBAN":"IS24 9318 8868 3995 4416 1599 42","amount":"€74,59","date":"1/29/2018","concept":"BlueStar TA-BIGITech Israel Technology ETF"},
{"id":"36791dd4-1328-4127-ad27-8e4191710fa7","IBAN":"ME44 0301 6569 9035 7559 95","amount":"€58,11","date":"1/18/2018","concept":"Oxford Lane Capital Corp."},
{"id":"f609532a-dc7d-4a75-9570-d6ca3f5e1cfb","IBAN":"AD21 3828 3385 Y4QQ QIDQ ICUD","amount":"€55,48","date":"3/23/2018","concept":"Stellar Acquisition III Inc."},
{"id":"5c3b2aab-6d3c-4357-9788-f7df065b0912","IBAN":"LB59 3830 9EHK LO3C PQCZ QQVD UIDC","amount":"€51,72","date":"11/21/2017","concept":"Cemex S.A.B. de C.V."},
{"id":"5e43b408-b746-421f-a130-7c2187a6de75","IBAN":"AD95 6623 0427 KOEF M5DL 60HH","amount":"€13,07","date":"6/26/2017","concept":"Zayo Group Holdings, Inc."},
{"id":"67beccab-127c-4226-8260-a06619136ecd","IBAN":"BE39 0183 8403 4880","amount":"€43,57","date":"2/10/2018","concept":"Duke Energy Corporation"},
{"id":"69cce908-2ed2-4ef0-9d6d-b51b0a17c712","IBAN":"MT74 VTPH 3539 2EEN KT2A 3EO1 BGS5 HF0","amount":"€59,22","date":"5/19/2017","concept":"NOW Inc."},
{"id":"0b68c071-8672-4f61-911a-5444bbe0b811","IBAN":"CR64 8404 9301 1147 4949 7","amount":"€80,99","date":"8/5/2017","concept":"Lehman ABS Corporation"},
{"id":"0e941dc6-c5b4-44f2-986d-945d461baf32","IBAN":"MU55 GEYU 6624 8902 6002 1267 969R JV","amount":"€24,65","date":"1/24/2018","concept":"Wayside Technology Group, Inc."},
{"id":"0ca0449d-bcbe-4a55-b745-a35c6ec7031c","IBAN":"FR34 1399 9021 84G2 KY8K ANUG 778","amount":"€91,38","date":"5/3/2017","concept":"KB Home"},
{"id":"79c7b23b-1acf-436a-ba54-599af74bbc58","IBAN":"FR44 6767 9378 16WY 0BBJ V1BA A75","amount":"€94,36","date":"9/30/2017","concept":"Exactech, Inc."},
{"id":"623aaa56-52d0-411f-865d-089407744536","IBAN":"DE84 5354 7818 1265 2233 23","amount":"€24,71","date":"1/2/2018","concept":"Hyster-Yale Materials Handling, Inc."},
{"id":"5a7d2d47-ac49-48b5-8cc1-78403302f7e7","IBAN":"IS18 3220 6867 6538 8860 8792 86","amount":"€6,63","date":"11/9/2017","concept":"Hawkins, Inc."},
{"id":"3b853652-08b3-487e-b06a-27a7a5a9a5cc","IBAN":"AD79 8943 4919 VDLW ZDTQ UCLM","amount":"€53,39","date":"6/7/2017","concept":"Covenant Transportation Group, Inc."},
{"id":"4cba9aa0-089d-4ea0-9480-2303c228b7f1","IBAN":"AE73 2411 6196 7034 0433 307","amount":"€91,41","date":"3/21/2018","concept":"Taro Pharmaceutical Industries Ltd."},
{"id":"d30601f8-19ce-4958-85f4-72ec62f96159","IBAN":"BG68 KXYT 1524 92E5 XTKZ UP","amount":"€99,03","date":"1/12/2018","concept":"Capstead Mortgage Corporation"},
{"id":"fd386320-fb05-444b-8f38-e204b509a743","IBAN":"DO02 TM3Z 7202 0899 0394 3121 8475","amount":"€28,55","date":"2/3/2018","concept":"Old Line Bancshares, Inc."},
{"id":"2a50c867-ef77-474c-904e-a0f7d4b9565c","IBAN":"LI83 0114 0GAC WH0M Y2LN H","amount":"€18,72","date":"1/17/2018","concept":"MercadoLibre, Inc."},
{"id":"849ca471-1ae0-401d-b9ec-d0da00993e30","IBAN":"SK81 1696 3217 1116 3992 0064","amount":"€87,23","date":"5/7/2017","concept":"trivago N.V."},
{"id":"953cb0c5-874a-4e62-ab44-6a0e6f586e8e","IBAN":"FR18 2014 0654 17RF Q9QZ 5FKF R21","amount":"€80,79","date":"3/26/2018","concept":"Wal-Mart Stores, Inc."},
{"id":"61e027fe-7dd0-4589-b6a7-0affa19d7aa9","IBAN":"FR34 1399 9021 84G2 KY8K ANUG 778","amount":"€-2,31","date":"6/17/2017","concept":"First Trust Germany AlphaDEX Fund"},
{"id":"19ac2b33-eb69-4f07-a725-9a2d42973b4f","IBAN":"FR19 8206 2769 031D ORN2 EBS8 V10","amount":"€91,53","date":"7/10/2017","concept":"VelocityShares VIX Short-Term ETN"},
{"id":"a01e93c4-da66-49a6-a805-477bf11f2f6a","IBAN":"KW69 EDHD 5NEE CGBQ UHBV MDXR 45QB HH","amount":"€76,06","date":"9/6/2017","concept":"Blackrock Muni New York Intermediate Duration Fund Inc"}]
